<?xml version="1.0" standalone="no"?>
<!DOCTYPE svg PUBLIC "-//W3C//DTD SVG 1.1//EN" "http://www.w3.org/Graphics/SVG/1.1/DTD/svg11.dtd" >
<svg xmlns="http://www.w3.org/2000/svg">
<metadata>Generated by IcoMoon</metadata>
<defs>
<font id="icomoon" horiz-adv-x="1024">
<font-face units-per-em="1024" ascent="960" descent="-64" />
<missing-glyph horiz-adv-x="1024" />
<glyph unicode="&#x20;" horiz-adv-x="512" d="" />
<glyph unicode="&#xe900;" glyph-name="bridging-finance" d="M523.264 820.992c126.208-5.888 232.192-89.088 272.64-203.008l-78.336 32-11.008-26.88 128.256-52.224 59.136 120.064-26.112 12.8-41.472-84.48c-43.52 134.144-169.216 231.424-317.44 231.424-145.408-0.256-269.568-93.44-315.136-223.488l-37.632 76.288-26.112-12.8 59.136-120.064 128.256 52.224-11.008 26.88-85.76-35.072c39.424 115.712 146.432 199.936 273.664 206.080zM175.616 497.408l-140.032-106.24c-10.752-8.192-17.408-21.504-17.408-35.328v-247.808c0-24.064 18.944-43.776 42.496-43.776h254.976c23.296 0 42.496 19.712 42.496 43.776v247.808c0 13.824-6.4 27.136-17.408 35.328l-140.032 106.24c-3.584 2.816-7.936 4.352-12.544 4.352s-8.96-1.536-12.544-4.352zM0 108.032v247.808c0 19.712 9.216 38.656 24.832 50.432l140.032 106.24c13.568 10.24 32.768 10.24 46.336 0l140.032-106.24c15.36-11.776 24.832-30.72 24.832-50.432v-247.808c0-34.56-27.136-62.72-60.672-62.72h-254.72c-33.536 0.256-60.672 28.16-60.672 62.72zM823.552 497.664l-140.032-106.24c-10.752-8.192-17.408-21.504-17.408-35.328v-247.808c0-24.32 18.944-43.776 42.496-43.776h254.976c23.296 0 42.496 19.712 42.496 43.776v247.808c0 13.824-6.4 27.136-17.408 35.328l-140.032 106.24c-3.584 2.816-7.936 4.096-12.544 4.096s-8.96-1.536-12.544-4.096zM647.936 108.032v247.808c0 19.968 9.216 38.656 24.832 50.432l140.032 106.24c13.568 10.24 32.768 10.24 46.336 0l140.032-106.24c15.36-11.776 24.832-30.72 24.832-50.432v-247.808c0-34.56-27.136-62.72-60.672-62.72h-254.976c-33.28 0.256-60.416 28.416-60.416 62.72z" />
<glyph unicode="&#xe901;" glyph-name="bullet" d="M830.208 161.792l177.152 235.776c22.272 29.44 22.272 71.68 0 101.12l-229.12 304.896c-25.344 33.792-66.048 53.76-108.8 53.76h-534.528c-74.24 0-134.912-59.136-134.912-131.84v-555.008c0-72.704 60.672-131.84 134.912-131.84h534.528c42.752 0 83.456 20.224 108.8 53.76l18.432 24.576 33.536 44.8z" />
<glyph unicode="&#xe902;" glyph-name="buy-to-let-jersey" d="M512.512 925.184c-6.144 0-12.544-2.048-17.664-5.888l-345.6-259.84c-18.944-14.336-30.208-36.864-29.952-60.416l1.536-555.776c0.256-41.472 33.792-75.008 75.264-75.008h633.344c20.224 0 39.168 7.936 53.504 22.272s22.016 33.28 21.76 53.504l-4.352 562.944c-0.256 23.552-11.52 45.824-30.464 59.904l-339.712 252.672c-5.376 3.84-11.52 5.632-17.664 5.632zM829.44-64h-633.344c-59.136 0-107.264 48.128-107.52 107.264l-1.536 555.776c0 33.792 15.872 66.048 42.752 86.272l345.6 259.84c21.76 16.384 52.224 16.384 73.984 0.256l339.968-252.416c26.88-19.968 43.008-51.968 43.52-85.504l4.352-562.944c0.256-28.928-10.752-56.064-31.232-76.544-20.48-20.736-47.616-32-76.544-32zM254.72 494.592h35.072c6.144 0 11.52 0.768 16.384 2.56 4.608 1.792 8.448 4.096 11.52 6.912s5.376 6.4 6.912 10.24c1.536 3.84 2.304 8.192 2.304 12.8 0 4.864-0.768 9.472-2.304 13.568s-3.84 7.68-6.912 10.496c-3.072 3.072-7.168 5.12-11.776 6.912-4.864 1.536-10.496 2.304-17.152 2.304h-34.048v-65.792zM295.424 475.904h-40.704v-70.144h-23.040v173.568h57.6c19.456 0 34.56-4.352 45.056-13.312s15.872-21.76 15.872-38.912c0-10.752-2.816-20.224-8.704-28.16s-14.080-14.080-24.32-17.92l40.704-73.728v-1.536h-24.576l-37.888 70.144zM480.256 485.888h-75.264v-61.696h87.552v-18.688h-110.336v173.824h109.056v-18.944h-86.272v-55.808h75.264zM654.336 405.504h-23.040l-87.296 133.888v-133.888h-23.040v173.824h23.040l87.552-134.4v134.4h22.784zM811.52 560.384h-55.808v-154.88h-22.784v154.88h-55.552v18.944h134.144zM391.68 286.208h23.040v-122.88c0-8.704-1.28-16.128-4.096-22.784s-6.4-12.288-11.52-16.64c-4.864-4.352-10.752-7.936-17.408-10.24s-14.080-3.328-22.016-3.328c-7.936 0-15.36 1.024-22.016 3.072s-12.544 5.12-17.408 9.216c-4.864 4.096-8.704 9.472-11.264 15.616-2.816 6.4-4.096 13.824-4.096 22.272h22.784c0-5.376 0.768-10.24 2.304-14.080 1.536-4.096 3.84-7.168 6.656-9.984 2.816-2.56 6.144-4.352 9.984-5.632s8.192-1.792 12.8-1.792c4.608 0 8.704 0.768 12.544 2.304s7.424 3.584 10.24 6.4c2.816 2.816 5.12 6.4 6.656 10.752s2.304 9.216 2.304 14.848v122.88zM546.304 156.416c0 4.096-0.512 7.68-1.792 10.752s-3.328 5.888-6.656 8.448c-3.072 2.56-7.424 5.12-12.8 7.168-5.376 2.304-12.032 4.608-20.224 6.912-8.704 2.56-16.384 5.376-23.296 8.448s-12.8 6.656-17.664 10.752c-4.864 4.096-8.704 8.704-11.264 14.080-2.56 5.12-3.84 11.264-3.84 17.92s1.536 13.056 4.352 18.688c2.816 5.888 6.912 10.752 12.032 15.104s11.264 7.68 18.688 9.984c7.168 2.304 15.36 3.584 24.32 3.584 9.728 0 18.432-1.536 26.112-4.352 7.68-3.072 14.080-6.912 19.2-11.776s9.216-10.496 11.776-16.896c2.56-6.4 4.096-12.8 4.096-19.712h-23.040c0 4.864-0.768 9.216-2.304 13.568-1.536 4.096-3.84 7.68-7.168 10.752s-7.168 5.376-12.032 6.912c-4.864 1.792-10.496 2.56-16.896 2.56-6.144 0-11.52-0.768-15.872-2.048-4.608-1.536-8.192-3.328-11.264-5.888-2.816-2.56-5.12-5.376-6.656-8.96-1.536-3.328-2.048-7.168-2.048-11.264 0-3.584 0.768-6.912 2.304-9.984s3.84-5.888 7.168-8.448c3.328-2.56 7.424-4.864 12.544-7.168 5.12-2.048 11.264-4.096 18.432-6.144 9.728-2.816 18.432-5.888 25.6-9.216s13.056-7.168 17.664-11.52c4.608-4.352 8.192-9.216 10.496-14.336 2.304-5.376 3.328-11.264 3.328-18.176 0-7.168-1.536-13.568-4.352-19.2s-6.912-10.496-12.288-14.592c-5.376-4.096-11.776-7.168-19.2-9.472s-15.616-3.328-24.832-3.328c-5.376 0-10.752 0.512-15.872 1.536-5.376 1.024-10.496 2.56-15.36 4.352-4.864 2.048-9.472 4.352-13.568 7.424s-7.68 6.4-11.008 10.24c-3.072 3.84-5.632 8.192-7.168 13.056-1.792 4.864-2.56 10.24-2.56 15.872h23.040c0-5.888 1.28-11.008 3.584-15.36s5.376-7.68 9.472-10.496c3.84-2.816 8.448-4.864 13.568-6.144s10.496-2.048 16.128-2.048c12.032 0 21.248 2.56 27.904 7.424 5.888 5.632 9.216 12.544 9.216 20.992zM651.52 198.912l45.312 87.296h26.112l-59.904-109.056v-64.768h-22.784v64.768l-59.904 109.056h26.112z" />
<glyph unicode="&#xe903;" glyph-name="buy-to-let-uk" d="M512.512 927.744c-6.4 0-12.544-2.048-17.92-5.888l-346.368-260.608c-18.944-14.336-30.208-36.864-30.208-60.672l1.792-557.056c0-41.472 34.048-75.264 75.52-75.264h635.136c20.224 0 39.168 7.936 53.504 22.272s22.016 33.536 21.76 53.76l-4.352 564.48c-0.256 23.552-11.52 46.080-30.464 59.904l-340.736 253.184c-5.12 3.84-11.52 5.888-17.664 5.888zM830.208-64h-634.88c-59.392 0-107.52 48.128-107.776 107.52l-1.536 557.056c0 33.792 15.872 66.048 43.008 86.528l346.112 260.608c21.76 16.384 52.224 16.384 74.24 0.256l340.736-252.928c26.88-19.968 43.264-51.968 43.52-85.76l4.352-564.48c0.256-28.928-10.752-56.32-31.232-76.8-20.224-20.736-47.616-32-76.544-32zM253.952 495.872h35.328c6.144 0 11.776 0.768 16.384 2.56s8.448 4.096 11.776 6.912c3.072 2.816 5.376 6.4 6.912 10.24s2.304 8.192 2.304 12.8c0 5.12-0.768 9.472-2.304 13.568s-3.84 7.68-6.912 10.496c-3.072 3.072-7.168 5.376-11.776 6.912-4.864 1.536-10.496 2.304-17.152 2.304h-34.56v-65.792zM294.912 477.184h-40.96v-70.4h-23.040v174.080h57.6c19.712 0 34.816-4.608 45.312-13.312 10.496-8.96 15.872-22.016 15.872-38.912 0-10.752-2.816-20.224-8.704-28.416-5.888-7.936-14.080-14.080-24.576-17.92l40.96-73.984v-1.536h-24.576l-37.888 70.4zM480.256 487.168h-75.52v-61.696h87.552v-18.688h-110.592v174.080h109.568v-18.944h-86.528v-55.808h75.52zM654.848 406.784h-23.040l-87.808 134.144v-134.144h-23.040v174.080h23.040l88.064-134.912v134.912h22.784zM812.288 561.92h-55.808v-155.136h-22.784v155.136h-56.064v18.944h134.656zM498.688 286.976v-118.016c0-9.728-1.792-18.432-5.12-25.6-3.328-7.424-7.936-13.568-13.824-18.432s-12.544-8.448-20.224-11.008c-7.68-2.304-15.616-3.584-24.064-3.584-8.96 0-17.152 1.28-24.832 3.584-7.68 2.56-14.336 6.144-19.968 11.008s-9.984 11.008-13.312 18.432c-3.328 7.168-4.864 15.872-4.864 25.6v118.016h22.784v-118.016c0-6.656 1.024-12.544 2.816-17.664 2.048-4.864 4.608-9.216 8.192-12.544s7.68-5.888 12.544-7.424c4.864-1.536 10.496-2.304 16.384-2.304 6.144 0 11.52 0.768 16.64 2.304 4.864 1.536 9.216 4.096 12.8 7.424s6.144 7.424 8.192 12.544c2.048 4.864 2.816 10.752 2.816 17.664v118.016h23.040zM579.072 193.792l-21.248-22.016v-58.88h-23.040v174.080h23.040v-86.016l18.944 20.992 58.368 65.024h27.904l-68.608-76.8 73.728-97.28h-27.392z" />
<glyph unicode="&#xe904;" glyph-name="calculator" d="M241.152-32c-35.072 0-63.744 28.672-63.744 63.744s28.672 63.744 63.744 63.744c35.072 0 63.744-28.672 63.744-63.744 0-35.328-28.672-63.744-63.744-63.744zM241.152 127.232c-52.736 0-95.488-42.752-95.488-95.488s42.752-95.488 95.488-95.488c52.736 0 95.488 42.752 95.488 95.488s-42.752 95.488-95.488 95.488zM241.152 509.44c-35.072 0-63.744 28.672-63.744 63.744s28.672 63.744 63.744 63.744c35.072 0 63.744-28.672 63.744-63.744s-28.672-63.744-63.744-63.744zM241.152 668.928c-52.736 0-95.488-42.752-95.488-95.488s42.752-95.488 95.488-95.488c52.736 0 95.488 42.752 95.488 95.488s-42.752 95.488-95.488 95.488zM241.152 239.36c-35.072 0-63.744 28.672-63.744 63.744s28.672 63.744 63.744 63.744c35.072 0 63.744-28.672 63.744-63.744s-28.672-63.744-63.744-63.744zM241.152 398.592c-52.736 0-95.488-42.752-95.488-95.488s42.752-95.744 95.488-95.744c52.736 0 95.488 42.752 95.488 95.744 0 52.736-42.752 95.488-95.488 95.488zM512-32c-35.072 0-63.744 28.672-63.744 63.744s28.672 63.744 63.744 63.744c35.072 0 63.744-28.672 63.744-63.744 0-35.328-28.672-63.744-63.744-63.744zM512 127.232c-52.736 0-95.488-42.752-95.488-95.488s42.752-95.488 95.488-95.488c52.736 0 95.488 42.752 95.488 95.488s-42.752 95.488-95.488 95.488zM512 509.44c-35.072 0-63.744 28.672-63.744 63.744s28.672 63.744 63.744 63.744c35.072 0 63.744-28.672 63.744-63.744s-28.672-63.744-63.744-63.744zM512 668.928c-52.736 0-95.488-42.752-95.488-95.488s42.752-95.488 95.488-95.488c52.736 0 95.488 42.752 95.488 95.488s-42.752 95.488-95.488 95.488zM512 239.36c-35.072 0-63.744 28.672-63.744 63.744s28.672 63.744 63.744 63.744c35.072 0 63.744-28.672 63.744-63.744s-28.672-63.744-63.744-63.744zM512 398.592c-52.736 0-95.488-42.752-95.488-95.488s42.752-95.744 95.488-95.744c52.736 0 95.488 42.752 95.488 95.744 0 52.736-42.752 95.488-95.488 95.488zM782.848-32c-35.072 0-63.744 28.672-63.744 63.744s28.672 63.744 63.744 63.744c35.072 0 63.744-28.672 63.744-63.744 0-35.328-28.672-63.744-63.744-63.744zM782.848 127.232c-52.736 0-95.488-42.752-95.488-95.488s42.752-95.488 95.488-95.488c52.736 0 95.488 42.752 95.488 95.488s-42.752 95.488-95.488 95.488zM782.848 636.928c35.072 0 63.744-28.672 63.744-63.744s-28.672-63.744-63.744-63.744c-35.072 0-63.744 28.672-63.744 63.744s28.672 63.744 63.744 63.744zM782.848 477.696c52.736 0 95.488 42.752 95.488 95.488s-42.752 95.488-95.488 95.488c-52.736 0-95.488-42.752-95.488-95.488s42.752-95.488 95.488-95.488zM782.848 239.36c-35.072 0-63.744 28.672-63.744 63.744s28.672 63.744 63.744 63.744c35.072 0 63.744-28.672 63.744-63.744s-28.672-63.744-63.744-63.744zM782.848 398.592c-52.736 0-95.488-42.752-95.488-95.488s42.752-95.744 95.488-95.744c52.736 0 95.488 42.752 95.488 95.744 0 52.736-42.752 95.488-95.488 95.488zM878.336 960h-732.672v-218.368h732.928v218.368zM848.64 771.328h-673.28v158.72h673.28v-158.72z" />
<glyph unicode="&#xe905;" glyph-name="calendar" d="M42.752 682.752h938.752v-704h-938.752v704zM981.248 725.248h-938.496v192h938.752v-192zM0-64h1024v1024h-1024v-1024zM320 853.248h64v-64h-64v64zM640 853.248h64v-64h-64v64zM365.824 530.944c-7.68-51.968-32.256-52.736-81.92-54.528l-7.68-0.256v-36.096h84.224v-236.544h44.544v334.080h-38.144l-1.024-6.656zM617.728 430.336c-19.968 0-40.192-6.4-56.32-17.408l15.104 78.336h140.544v42.496h-173.824l-33.792-181.248h38.4l2.304 3.584c13.568 20.992 38.144 34.048 64.256 34.048 42.496 0 73.472-31.488 73.472-74.752 0-39.168-24.576-78.848-71.68-78.848-40.192 0-69.12 27.136-70.4 66.048l-0.256 7.68h-44.544l0.256-8.192c1.536-63.232 46.592-105.728 112.64-105.728 66.56 0 118.528 50.944 118.528 115.968 0.256 70.4-45.824 118.016-114.688 118.016z" />
<glyph unicode="&#xe906;" glyph-name="consolidation" d="M892.416 582.656c-45.568 0-82.432 37.12-82.432 82.432s37.12 82.432 82.432 82.432c45.568 0 82.432-37.12 82.432-82.432s-36.864-82.432-82.432-82.432zM706.304 126.464c0-16.896-8.192-33.28-22.016-43.52l-156.672-118.784c-3.84-2.816-8.448-4.352-13.056-4.352s-9.216 1.536-13.056 4.352l-158.976 119.552c-13.824 10.496-22.016 26.88-22.016 44.288l0.768 252.928c0 15.104 6.144 28.928 16.384 38.912l0.256 0.256c9.984 9.984 23.808 16.128 38.912 16.128h276.48c11.008 0 21.504-3.328 30.464-9.216l8.96-7.168c10.496-10.496 16.128-24.576 16.128-39.424l-2.56-253.952zM48.896 665.088c0 45.568 37.12 82.432 82.432 82.432 45.568 0 82.432-37.12 82.432-82.432s-37.12-82.432-82.432-82.432c-45.312 0-82.432 37.12-82.432 82.432zM592.128 852.224c0-44.544-35.84-80.896-80.128-82.176-44.288 1.28-80.128 37.632-80.128 82.176s35.84 80.896 80.128 82.176c44.288-1.28 80.128-37.632 80.128-82.176zM892.416 773.12c-59.392 0-107.776-48.384-107.776-107.776 0-29.184 11.776-55.296 30.464-74.752l-117.76-144.384c-13.056 8.96-28.16 13.568-44.288 13.568h-126.208l-4.352 285.184c55.808 4.096 99.84 50.432 99.84 107.008 0 59.648-48.384 108.032-107.776 108.032-0.768 0-1.536-0.256-2.56-0.256-0.768 0-1.536 0.256-2.56 0.256-59.392 0-107.776-48.384-107.776-107.776 0-55.296 41.728-100.352 95.488-106.496l4.608-285.952h-125.184c-15.104 0-29.184-4.608-41.216-12.032l-124.672 144.896c17.664 19.2 28.672 44.544 28.672 72.704 0 59.392-48.384 107.776-107.776 107.776-59.648 0-108.032-48.384-108.032-108.032s48.384-107.776 107.776-107.776c22.272 0 43.008 6.912 60.16 18.432l124.416-144.896c-11.264-13.568-18.432-30.976-18.688-49.92l-0.256-252.928c0-24.832 11.776-48.384 31.488-63.232l158.976-119.552c16.128-12.032 38.656-12.032 54.784 0l156.672 118.784c19.456 14.592 31.232 37.888 31.232 62.208l2.048 253.952c0 17.664-5.888 34.304-16.384 48.128l119.040 146.176c16.64-10.752 36.352-17.152 57.6-17.152 59.392 0 107.776 48.384 107.776 107.776s-48.128 108.032-107.776 108.032z" />
<glyph unicode="&#xe907;" glyph-name="first-time" d="M234.496 676.352h32.256v-128.768h-32.256v128.768zM320 399.872l-21.76-8.448v-33.792l10.752-10.752 56.832-57.088-67.584-67.584v-89.856l35.584-35.584-35.584-35.584v-93.184h-96.512v423.68l-20.736 7.936c-75.264 28.928-123.648 99.584-123.648 179.968 0 106.496 86.784 193.024 193.28 193.024s193.024-86.528 193.024-193.024c0-80.128-48.64-150.784-123.648-179.712zM475.904 579.84c0 124.416-100.864 225.28-225.28 225.28s-225.28-100.864-225.28-225.28c0-95.744 59.904-177.408 144.384-210.176v-433.664h161.024v112.128l48.64 48.896-48.64 48.896v63.232l80.896 80.896-79.616 79.616c83.968 32.768 143.872 114.432 143.872 210.176zM532.224 699.648l24.576 20.736-82.688 98.56-24.832-20.736zM926.72 378.88l5.888 68.608-68.608 5.888-40.704 48.64 9.984 114.176-112.384 9.984c43.52 79.104 36.864 180.224-24.576 253.44-80.128 95.232-222.208 107.776-317.44 27.904-38.144-32-62.464-74.24-73.472-119.552 10.496-3.328 20.736-7.424 30.464-12.544 8.704 40.448 29.696 78.592 63.744 107.264 81.664 68.352 203.52 57.6 272.128-23.808 51.712-61.44 59.904-146.688 20.992-217.344l-11.264-20.48 21.76-25.856 15.104-1.28 80.128-6.912-7.168-81.92-1.28-13.312 8.448-10.24 40.96-48.64 8.704-10.24 13.312-1.28 36.608-3.328-3.072-36.608-1.28-13.312 8.448-10.24 51.456-61.184-73.984-62.208-272.384 324.864-20.992-7.168c-45.568-15.616-93.44-13.312-135.68 3.84-1.536-10.752-3.84-21.248-6.912-31.488 48.896-18.432 102.912-19.968 152.832-2.816l279.040-332.288 123.392 103.424-72.192 86.016z" />
<glyph unicode="&#xe908;" glyph-name="holiday-home" d="M664.32-34.56c-23.296 89.6-83.968 154.112-155.392 154.112s-132.096-64.512-155.392-154.112h-116.736c41.728 58.112 77.056 122.624 106.752 189.184h330.496c29.696-66.56 65.024-131.072 106.752-189.184h-116.48zM425.728 384.768h166.4c18.432-65.024 41.216-133.376 69.376-200.704h-305.152c28.16 67.072 50.944 135.424 69.376 200.704zM495.872 752.128h25.856c2.56-27.648 17.152-168.448 62.208-337.92h-150.272c45.056 169.216 59.648 310.016 62.208 337.92zM470.528 843.776c0 3.072 1.536 6.144 3.84 7.936l31.488 23.808c0.768 0.512 1.792 1.024 2.816 1.024s2.048-0.256 2.816-1.024l31.488-23.808c2.56-1.792 3.84-4.864 3.84-7.936v-51.968c0-5.376-4.352-9.984-9.472-9.984h-57.344c-5.376 0-9.472 4.352-9.472 9.984v51.968zM817.408-34.56c-43.776 57.344-80.384 122.112-111.104 189.184h52.992v29.44h-66.048c-28.928 66.816-52.224 135.424-70.656 200.704h33.536v29.44h-41.728c-44.544 165.376-59.904 304.896-62.976 337.92h0.768c11.264 0 20.48 9.472 20.48 21.248v84.224c0 6.656-3.072 13.056-8.448 17.152l-41.984 32v50.688h-26.88v-50.944l-41.984-31.744c-5.376-4.096-8.448-10.496-8.448-17.152v-84.224c0-11.776 9.216-21.248 20.736-21.248h0.768c-3.072-33.024-18.432-172.544-62.976-337.92h-41.728v-29.44h33.536c-18.688-65.28-41.984-133.888-70.656-200.704h-66.304v-29.44h52.992c-30.976-67.072-67.584-131.84-111.104-189.184h-53.76v-29.44h256.256v29.44h-18.688c20.992 72.96 68.608 124.672 124.672 124.672s103.68-51.712 124.672-124.672h-12.288v-29.44h256.256v29.44h-59.904z" />
<glyph unicode="&#xe909;" glyph-name="home-movers" d="M975.104 34.816c-12.8-13.056-30.208-20.224-48.384-20.224h-417.792c18.176 18.432 28.16 43.008 27.904 68.864l-2.56 313.344c-0.256 29.952-14.592 58.624-38.656 76.8l-203.008 153.6 330.496 248.576c9.472 6.912 22.528 7.168 32 0l307.712-228.608c17.152-12.8 27.392-33.024 27.648-54.272l4.096-509.952c0.256-17.92-6.656-35.072-19.456-48.128zM353.024 14.592c-37.632 0-68.096 30.464-68.096 68.096l-1.536 515.328 194.816-147.456c16.64-12.8 26.88-32.768 27.136-53.76l2.304-313.344c0.256-18.176-6.912-35.584-19.712-48.64s-30.208-20.224-48.384-20.224h-86.528zM30.208 82.688l-1.024 312.064c0 21.248 10.24 41.728 27.136 54.528l197.888 148.736 1.536-515.584c0-26.368 10.752-50.432 28.16-67.84h-185.6c-37.632 0-68.096 30.72-68.096 68.096zM1019.904 593.664c-0.256 30.464-14.848 59.392-39.424 77.312l-307.456 228.608c-19.712 14.592-47.36 14.592-67.072-0.256l-567.296-426.496c-24.32-18.432-38.656-47.616-38.656-78.080l0.768-312.064c0.256-53.504 43.776-97.024 97.28-97.024h828.672c26.112 0 50.688 10.24 69.12 28.672 18.432 18.688 28.416 43.264 28.16 69.376l-4.096 509.952z" />
<glyph unicode="&#xe90a;" glyph-name="home" d="M184.832 794.624h81.664v-81.92l-81.664-81.664v163.584zM512 958.208l-204.544-204.544v81.92h-163.328v-245.248l-144.128-144.128 28.928-28.928 483.072 483.072 483.072-483.072 28.928 28.928-512 512zM839.168-23.040h-204.544v286.208h-245.504v-286.208h-204.288v432.64l327.168 327.168 327.168-327.168v-432.64zM144.128 426.752v-490.752h285.952v286.208h163.584v-286.208h286.208v490.752l-367.872 367.872-367.872-367.872z" />
<glyph unicode="&#xe90b;" glyph-name="hundred-percent" d="M296.448 607.744h-1.024l-50.944-27.648-7.68 30.208 64 34.304h34.048v-293.376h-38.4zM405.248 496.64c0-76.288 23.552-119.552 59.648-119.552 40.704 0 59.904 47.36 59.904 122.368 0 72.192-18.432 119.552-59.648 119.552-34.56 0-59.904-42.496-59.904-122.368zM564.48 501.248c0-99.84-37.12-154.88-101.888-154.88-57.344 0-96.256 53.76-97.024 150.784 0 98.304 42.496 152.576 101.888 152.576 61.952 0 97.024-55.040 97.024-148.48zM627.968 496.64c0-76.288 23.552-119.552 59.648-119.552 40.704 0 59.904 47.36 59.904 122.368 0 72.192-18.432 119.552-59.648 119.552-34.816 0-59.904-42.496-59.904-122.368zM787.2 501.248c0-99.84-37.12-154.88-101.888-154.88-57.344 0-96.256 53.76-97.024 150.784 0 98.304 42.496 152.576 101.888 152.576 61.696 0 97.024-55.040 97.024-148.48zM904.448 372.224c0-125.44-129.792-298.24-392.448-394.24-262.912 96-391.424 266.752-391.424 392.192v483.584l391.936 75.52 391.936-74.496v-482.56zM512 960l-425.472-81.152v-506.112c0-145.664 128-333.056 425.472-436.736 297.472 103.68 425.472 291.072 425.472 436.736v506.112l-425.472 81.152z" />
<glyph unicode="&#xe90c;" glyph-name="icon" d="M27.136 383.744c0 20.224 8.192 39.168 24.064 51.2l18.432 14.336h-0.256l183.552 139.264c0 0 2.304 1.536 2.816 1.792-0.256-17.408-0.256-1.024-0.256-18.432v-546.816c0-24.576 6.912-46.592 22.528-62.208h-191.744c-33.792 0-59.136 27.136-59.136 62.208v358.656zM623.104 875.264c5.376 4.096 11.52 6.144 17.92 6.144 6.656 0 12.8-2.048 18.176-6.144l312.576-251.904c15.616-12.032 25.344-30.976 25.344-51.2v-546.816c0-35.072-27.904-62.208-61.696-62.208h-418.048c15.616 15.36 27.392 37.376 27.392 62.208v358.4c0 28.672-14.592 56.064-36.864 72.96l-203.264 153.6c-5.12 3.84-11.264 6.656-17.152 8.704l199.936 155.648 135.68 100.608zM283.904 25.088l-1.536 546.816c0 21.504-0.256 12.032 0 20.736 3.328-2.304 2.816-2.048 5.632-4.096l203.776-153.6c15.616-12.032 26.112-30.976 26.112-51.2v-358.656c0-35.072-28.928-62.208-62.976-62.208h-113.92c-33.792 0.256-57.088 27.136-57.088 62.208zM86.272-64h848.896c48.384 0 88.832 39.168 88.832 89.088v546.816c0 28.672-14.080 56.064-36.352 72.96l-312.576 252.16c-19.712 14.848-47.616 14.848-67.328 0l-32.256-25.344-540.416-414.72c-22.272-17.152-35.072-44.544-35.072-73.216v-358.656c0-49.92 37.888-89.088 86.272-89.088z" />
<glyph unicode="&#xe90d;" glyph-name="latest-rates" d="M983.040 59.392c0-39.68-41.984-81.92-81.92-81.92h-657.408c27.648 28.672 43.008 66.304 43.008 92.16v848.896h696.32v-859.136zM132.608-22.528c-25.6 0-91.648 13.312-91.648 74.496v293.632h204.8v-275.968c0-27.392-35.84-92.16-92.416-92.16h-20.736zM245.76 959.488v-572.928h-245.76v-334.592c0-81.664 76.032-115.456 132.608-115.456h768.512c61.952 0 122.88 60.416 122.88 122.624v900.352h-778.24zM368.64 836.608h532.48v-40.96h-532.48v40.96zM368.64 284.416h532.48v-40.96h-532.48v40.96zM368.64 141.056h532.48v-40.96h-532.48v40.96zM860.16 427.52h-450.56v225.024h450.56v-225.024zM901.12 693.504h-532.48v-306.944h532.48v306.944z" />
<glyph unicode="&#xe90e;" d="M323.584 215.552l-18.176-55.296h-275.2v74.24c0 9.216 2.56 13.312 11.264 16.896 28.672 12.544 107.776 41.216 156.672 55.552 25.6 8.192 25.6 30.976 25.6 47.36 0 23.040-3.072 40.192-9.472 54.272-4.864 10.496-11.264 29.44-13.568 46.080l-1.28 8.96-5.888 6.912c-3.328 3.84-11.52 15.616-16.896 43.52-4.352 22.016-2.56 26.88-1.024 30.976 1.024 2.304 1.792 4.352 2.304 6.912l0.256 0.768v0.512c3.072 14.336-1.024 56.576-5.12 79.36-1.792 10.496 0.512 40.448 20.224 65.536 12.032 15.36 35.328 34.304 78.592 37.376h28.672c35.072-2.304 61.952-14.848 79.36-37.376 19.712-25.088 22.016-55.040 20.224-65.536-4.352-23.552-8.192-65.024-5.12-79.616l0.512-2.048c0.512-1.536 1.024-3.072 1.536-4.608l0.256-0.768c1.792-4.352 3.584-9.472-0.768-31.232-5.632-28.16-13.824-39.936-17.152-43.776l-5.888-6.912-1.28-8.96c-2.304-16.64-8.448-35.584-13.568-46.336-7.168-15.104-14.336-33.28-14.336-53.504 0-16.64 0-39.424 26.368-47.616 23.808-6.912 55.040-17.152 84.48-27.392s-46.592-19.2-30.72-25.856c12.032-5.12-40.704-5.12-40.704-9.728l-60.16-28.672zM525.312 286.976c-9.472 3.84-7.936 3.072-23.040 8.704-37.888 13.824-88.32 30.72-122.88 40.96-4.096 1.28-4.864 1.536-4.864 18.688 0 14.336 5.888 28.416 11.52 40.704 6.144 13.056 13.568 35.328 16.128 55.040 7.424 8.448 17.408 25.344 23.808 57.6 5.632 28.16 3.072 38.656-0.768 48.128-0.256 1.024-0.768 2.048-1.024 3.072-1.28 6.656 0.512 40.96 5.376 67.84 3.328 18.432-0.768 57.344-26.112 89.6-15.872 20.48-46.336 45.568-102.144 48.896h-30.72c-54.784-3.328-85.248-28.416-101.376-48.896-25.344-32.256-29.44-71.168-26.112-89.6 4.864-26.624 6.912-61.184 5.376-67.584-0.256-1.024-0.768-2.048-1.024-3.072-3.84-9.728-6.4-19.968-0.768-48.128 6.4-32 16.384-48.896 23.808-57.6 2.56-19.968 9.984-41.984 16.128-55.040 4.608-9.728 6.656-22.784 6.656-41.216 0-17.152-0.768-17.408-4.608-18.688-50.176-14.848-129.792-43.776-159.744-56.576-23.040-10.752-28.928-28.928-28.928-45.312v-75.52c0-10.752 6.4-28.928 29.44-28.928h275.968c27.392 0 12.544 43.008 22.016 65.024 13.056 29.696 46.080 40.704 56.32 40.704 23.040 0 65.024 10.752 65.024 21.248 0 10.752 43.52-2.816 43.52 13.568 0 16.64 56.576 6.144 33.024 16.384z" />
<glyph unicode="&#xe90f;" d="M985.856 88.064h-642.816v92.928c0 11.52 3.328 16.64 14.080 21.248 35.84 15.616 134.912 51.456 195.84 69.376 32 10.24 32 38.656 32 59.392 0 28.928-3.84 50.432-12.032 67.584-6.144 13.056-14.080 36.864-16.896 57.6l-1.536 11.264-7.424 8.704c-4.096 4.608-14.336 19.456-21.248 54.528-5.632 27.392-3.072 33.792-1.024 38.912 1.024 2.816 2.048 5.376 2.816 8.448l0.512 1.536c3.84 17.92-1.28 70.656-6.656 99.328-2.304 13.056 0.512 50.432 25.344 81.92 15.104 19.2 44.288 43.008 98.048 46.592h35.84c44.032-3.072 77.312-18.688 99.328-46.592 24.576-31.488 27.648-68.864 25.088-81.92-5.376-29.44-10.24-81.408-6.4-99.584l0.512-2.56c0.512-1.792 1.28-3.84 2.048-5.888l0.256-1.024c2.048-5.376 4.608-11.776-1.024-39.168-7.168-35.072-17.408-49.92-21.248-54.528l-7.424-8.448-1.536-11.264c-2.816-20.736-10.752-44.544-16.896-57.856-8.96-18.944-17.92-41.728-17.92-66.816 0-20.736 0-49.152 33.024-59.648 59.136-17.408 156.672-51.2 196.352-67.584 15.104-6.4 20.736-17.92 20.736-23.296l0.256-93.184zM980.48 239.36c-41.472 17.408-140.032 51.2-200.704 69.12-5.12 1.536-5.888 1.792-5.888 23.296 0 17.664 7.424 35.584 14.336 50.688 7.68 16.384 16.896 44.032 20.224 68.864 9.216 10.752 21.76 31.744 29.696 71.936 7.168 35.328 3.84 48.128-1.024 60.416-0.512 1.28-1.024 2.56-1.28 3.84-1.792 8.192 0.768 51.456 6.656 84.736 4.096 23.040-1.024 71.68-32.768 112.128-19.968 25.6-58.112 56.832-127.744 61.184h-38.144c-68.608-4.352-106.752-35.584-126.72-61.184-31.488-40.448-36.864-89.088-32.768-112.128 6.144-33.536 8.448-76.544 6.656-84.736-0.256-1.28-0.768-2.56-1.28-3.84-4.608-12.032-7.936-24.832-0.768-60.416 7.936-40.192 20.48-61.184 29.696-71.936 3.328-24.832 12.288-52.48 20.224-68.864 5.632-12.032 8.192-28.416 8.192-51.456 0-21.504-0.768-21.76-5.632-23.296-62.72-18.432-162.56-54.528-199.68-70.912-29.44-12.544-36.608-35.328-36.608-55.808v-94.464c0-13.312 7.936-36.352 36.608-36.352h645.376c28.672 0 36.608 22.784 36.608 36.352v94.464c0.256 20.736-13.824 45.568-43.264 58.368z" />
<glyph unicode="&#xe910;" glyph-name="remortgages" d="M276.48 468.224v-294.656h471.040v19.712h-451.584v274.944zM512 458.496c-32.512 0-58.88-26.368-58.88-58.88s26.368-58.88 58.88-58.88c32.512 0 58.88 26.368 58.88 58.88s-26.368 58.88-58.88 58.88zM512 360.192c-21.76 0-39.168 17.664-39.168 39.168 0 21.76 17.664 39.168 39.168 39.168 21.76 0 39.168-17.664 39.168-39.168s-17.408-39.168-39.168-39.168zM276.48 252.16h471.040v294.656h-471.040v-294.656zM295.936 338.176v189.184h432.128v-255.744h-432.128v66.56zM681.472 232.704h-385.536v274.688h-19.712v-294.4h471.552v19.712h-19.712zM482.56 506.88h58.88v-19.712h-58.88v19.712zM482.56 311.040h58.88v-19.712h-58.88v19.712zM512.512 927.744c-6.4 0-12.544-2.048-17.92-5.888l-346.368-260.608c-18.944-14.336-30.208-36.864-30.208-60.672l1.792-557.056c0-41.472 34.048-75.264 75.52-75.264h635.136c20.224 0 39.168 7.936 53.504 22.272s22.016 33.536 21.76 53.76l-4.352 564.48c-0.256 23.552-11.52 46.080-30.464 59.904l-340.736 253.184c-5.12 3.84-11.52 5.888-17.664 5.888zM830.208-64h-634.88c-59.392 0-107.52 48.128-107.776 107.52l-1.536 557.056c0 33.792 15.872 66.048 43.008 86.528l346.112 260.608c21.76 16.384 52.48 16.384 74.24 0.256l340.736-252.928c26.88-19.968 43.264-51.968 43.52-85.76l4.352-564.48c0.256-28.928-10.752-56.32-31.232-76.8-20.224-20.736-47.616-32-76.544-32z" />
<glyph unicode="&#xe911;" glyph-name="search" d="M1024-49.92l-295.168 294.912c157.952 165.632 155.904 428.544-6.656 591.104-79.872 80.128-186.112 123.904-299.008 123.904s-219.392-43.776-299.264-123.904c-164.864-164.864-164.864-433.408 0-598.528 79.872-79.872 186.112-123.904 299.264-123.904 109.824 0 212.736 41.728 291.84 117.248l294.912-294.912 14.080 14.080zM137.728 251.648c-157.184 157.184-157.184 413.184 0 570.624 76.288 76.032 177.664 118.016 285.44 118.016s209.152-41.984 285.184-118.016c157.184-157.184 157.184-413.184 0-570.624-76.288-76.288-177.408-118.272-285.184-118.272s-209.152 41.984-285.44 118.272z" />
</font></defs></svg>